{
  "1": {
    "id": 1,
    "relations": {
      "spousal": [2],
      "child": [3, 4]
    },
    "gender": "male",
    "firstName": "Yohan",
    "lastName": "Banderenko",
    "age": 35
  },
  "2": {
    "id": 2,
    "relations": {
      "spousal": [1],
      "child": [3, 4]
    },
    "gender": "female",
    "firstName": "Masha",
    "lastName": "Banderenko",
    "age": 36
  },
  "3": {
    "id": 3,
    "proband": true,
    "relations": {
      "parent.child": [4],
      "parent": [1, 2]
    },
    "gender": "female",
    "firstName": "Yulia",
    "lastName": "Banderenko",
    "age": 15
  },
  "4": {
    "id": 4,
    "deceased": true,
    "relations": {
      "parent.child": [3],
      "parent": [1, 2]
    },
    "gender": "male",
    "firstName": "Anton",
    "lastName": "Banderenko",
    "age": 10
  }
}
