{
  "P1": {
    "id": "P1",
    "relations": { "spousal": ["P2"], "child": ["C1", "C2", "C3", "C4"], "parent": ["PG1", "PG2"] },
    "gender": "male",
    "twinId": 1
  },
  "P2": {
    "id": "P2",
    "relations": { "spousal": ["P1"], "child": ["C1", "C2", "C3", "C4"], "parent": ["MG1", "MG2"] },
    "gender": "female",
    "twinId": 1
  },
  "C1": {
    "id": "C1",
    "proband": true,
    "relations": { "parent": ["P1", "P2"] },
    "gender": "female",
    "twinId": 1,
    "age": 25
  },
  "C2": {
    "id": "C2",
    "relations": { "parent": ["P1", "P2"] },
    "gender": "female",
    "twinId": 1,
    "age": 25
  },
  "C3": {
    "id": "C3",
    "relations": { "parent": ["P1", "P2"] },
    "gender": "male",
    "twinId": 2,
    "age": 20
  },
  "C4": {
    "id": "C4",
    "relations": { "parent": ["P1", "P2"] },
    "gender": "male",
    "twinId": 2,
    "age": 20
  },
  "PG1": {
    "id": "PG1",
    "relations": { "spousal": ["PG2"], "child": ["P1", "PU1"] },
    "gender": "male"
  },
  "PG2": {
    "id": "PG2",
    "relations": { "spousal": ["PG1"], "child": ["P1", "PU1"] },
    "gender": "female"
  },
  "PU1": {
    "id": "PU1",
    "relations": { "parent": ["PG1", "PG2"] },
    "gender": "male",
    "twinId": 1
  },
  "MG1": {
    "id": "MG1",
    "relations": { "child": ["P2","MA1"], "spousal": ["MG2"] },
    "gender": "female"
  },
  "MG2": {
    "id": "MG2",
    "relations": { "child": ["P2","MA1"], "spousal": ["MG1"] },
    "gender": "male"
  },
  "MA1": {
    "id": "MA1",
    "relations": { "parent": ["MG1", "MG2"] },
    "gender": "female",
    "twinId": 1
  }
}
